http://locinsights:z24Q7gxFs3j0E7nFClZi@104.203.102.32:80
http://locinsights:z24Q7gxFs3j0E7nFClZi@154.16.45.61:80 
http://locinsights:z24Q7gxFs3j0E7nFClZi@154.16.45.45:80
http://locinsights:z24Q7gxFs3j0E7nFClZi@107.172.54.132:80 
http://locinsights:z24Q7gxFs3j0E7nFClZi@138.128.229.219:80
http://locinsights:z24Q7gxFs3j0E7nFClZi@138.128.229.234:80 
http://locinsights:z24Q7gxFs3j0E7nFClZi@154.16.47.126:80
http://locinsights:z24Q7gxFs3j0E7nFClZi@107.172.54.135:80 
http://locinsights:z24Q7gxFs3j0E7nFClZi@107.172.54.172:80
http://locinsights:z24Q7gxFs3j0E7nFClZi@104.203.102.28:80
